[
  {
    "label": "Sway Reload",
    "exec": "swaymsg reload",
    "icon": "/usr/share/nwg-bar/images/system-reboot.svg"
  },
  {
    "label": "Suspend",
    "exec": "systemctl suspend",
    "icon": "/usr/share/nwg-bar/images/system-lock-screen.svg"
  },
  {
    "label": "Lock",
    "exec": "nwg-lock",
    "icon": "/usr/share/nwg-bar/images/system-lock-screen.svg"
  },
  {
    "label": "Logout",
    "exec": "swaymsg exit",
    "icon": "/usr/share/nwg-bar/images/system-log-out.svg"
  },
  {
    "label": "Reboot",
    "exec": "systemctl reboot",
    "icon": "/usr/share/nwg-bar/images/system-reboot.svg"
  },
  {
    "label": "Shutdown",
    "exec": "systemctl -i poweroff",
    "icon": "/usr/share/nwg-bar/images/system-shutdown.svg"
  }
]